…
Next I read in the table and replace the short column names with the long ones to help makes sense of the table. This is indicitive what we're working with:
```
# A tibble: 168 x 103
   CED_CODE_2016 Buddhism_Males Buddhism_Females Buddhism_Persons
           <chr>          <int>            <int>            <int>
 1        CED101           2766             3921             6687
 2        CED102           3764             5078             8849
 3        CED103           3136             4200             7337
 4        CED104           1718             2240             3953
 5        CED105           6508             7815            14323
 6        CED106           2043             3012             5061
 7        CED107            399              573              971
 8        CED108           1092             1222             2312
 9        CED109            789             1224             2017
10        CED110            611              878             1491
# ... with 158 more rows, and 99 more variables:
#   Christianity_Anglican_Males <int>,
#   Christianity_Anglican_Females <int>,
#   Christianity_Anglican_Persons <int>,
#   Christianity_Assyrian_Apostolic_Males <int>,
#   Christianity_Assyrian_Apostolic_Females <int>,
…
